/Users/maxbrown/Documents/Spring2019/final/555-final-project/src/main/java/edu/upenn/cis/stormlite/Topology.java
/Users/maxbrown/Documents/Spring2019/final/555-final-project/src/main/java/edu/upenn/cis/stormlite/bolt/MapBolt.java
/Users/maxbrown/Documents/Spring2019/final/555-final-project/src/main/java/edu/upenn/cis/stormlite/spout/WordFileSpout.java
/Users/maxbrown/Documents/Spring2019/final/555-final-project/src/main/java/edu/upenn/SearchServer.java
/Users/maxbrown/Documents/Spring2019/final/555-final-project/src/main/java/edu/upenn/cis/stormlite/routers/FieldBased.java
/Users/maxbrown/Documents/Spring2019/final/555-final-project/src/main/java/edu/upenn/cis/IndexStorage/IndexerSpout.java
/Users/maxbrown/Documents/Spring2019/final/555-final-project/src/main/java/edu/upenn/cis/stormlite/tasks/SpoutTask.java
/Users/maxbrown/Documents/Spring2019/final/555-final-project/src/main/java/edu/upenn/cis/IndexStorage/DocuParseBolt.java
/Users/maxbrown/Documents/Spring2019/final/555-final-project/src/main/java/edu/upenn/cis/stormlite/TopologyBuilder.java
/Users/maxbrown/Documents/Spring2019/final/555-final-project/src/main/java/edu/upenn/cis455/mapreduce/utils/info/URLInfo.java
/Users/maxbrown/Documents/Spring2019/final/555-final-project/src/main/java/edu/upenn/cis455/mapreduce/utils/info/CrawlerWorkerUtils.java
/Users/maxbrown/Documents/Spring2019/final/555-final-project/src/main/java/edu/upenn/cis/stormlite/StringIntPair.java
/Users/maxbrown/Documents/Spring2019/final/555-final-project/src/main/java/edu/upenn/cis/stormlite/spout/FileSpout.java
/Users/maxbrown/Documents/Spring2019/final/555-final-project/src/main/java/edu/upenn/cis455/mapreduce/model/ReduceItem.java
/Users/maxbrown/Documents/Spring2019/final/555-final-project/src/main/java/edu/upenn/cis/stormlite/bolt/BoltDeclarer.java
/Users/maxbrown/Documents/Spring2019/final/555-final-project/src/main/java/edu/upenn/cis/stormlite/distributed/ConsensusTracker.java
/Users/maxbrown/Documents/Spring2019/final/555-final-project/src/main/java/edu/upenn/cis/IndexStorage/Indexer.java
/Users/maxbrown/Documents/Spring2019/final/555-final-project/src/main/java/edu/upenn/cis/stormlite/bolt/CrawlBolt.java
/Users/maxbrown/Documents/Spring2019/final/555-final-project/src/main/java/edu/upenn/cis/stormlite/OutputFieldsDeclarer.java
/Users/maxbrown/Documents/Spring2019/final/555-final-project/src/main/java/edu/upenn/cis/stormlite/Config.java
/Users/maxbrown/Documents/Spring2019/final/555-final-project/src/main/java/edu/upenn/cis455/mapreduce/storage/DatabaseContainer.java
/Users/maxbrown/Documents/Spring2019/final/555-final-project/src/main/java/edu/upenn/cis/IndexStorage/TfIdfEntity.java
/Users/maxbrown/Documents/Spring2019/final/555-final-project/src/main/java/edu/upenn/cis/stormlite/bolt/OutputCollector.java
/Users/maxbrown/Documents/Spring2019/final/555-final-project/src/main/java/edu/upenn/cis/stormlite/distributed/SenderBolt.java
/Users/maxbrown/Documents/Spring2019/final/555-final-project/src/main/java/edu/upenn/cis/stormlite/bolt/DatabaseBolt.java
/Users/maxbrown/Documents/Spring2019/final/555-final-project/src/main/java/edu/upenn/cis/IndexStorage/LoadingGUI.java
/Users/maxbrown/Documents/Spring2019/final/555-final-project/src/main/java/edu/upenn/cis/stormlite/distributed/WorkerHelper.java
/Users/maxbrown/Documents/Spring2019/final/555-final-project/src/main/java/edu/upenn/cis/stormlite/spout/IRichSpout.java
/Users/maxbrown/Documents/Spring2019/final/555-final-project/src/main/java/edu/upenn/cis/stormlite/distributed/StringIntPairDeserializer.java
/Users/maxbrown/Documents/Spring2019/final/555-final-project/src/main/java/edu/upenn/cis455/mapreduce/model/DocumentEntity.java
/Users/maxbrown/Documents/Spring2019/final/555-final-project/src/main/java/edu/upenn/cis455/mapreduce/utils/info/RobotsTxtInfo.java
/Users/maxbrown/Documents/Spring2019/final/555-final-project/src/main/java/edu/upenn/cis/IndexStorage/WordCollectorBolt.java
/Users/maxbrown/Documents/Spring2019/final/555-final-project/src/main/java/edu/upenn/cis/stormlite/tuple/Fields.java
/Users/maxbrown/Documents/Spring2019/final/555-final-project/src/main/java/edu/upenn/cis/stormlite/routers/RoundRobin.java
/Users/maxbrown/Documents/Spring2019/final/555-final-project/src/main/java/edu/upenn/cis/stormlite/spout/SpoutOutputCollector.java
/Users/maxbrown/Documents/Spring2019/final/555-final-project/src/main/java/edu/upenn/cis/stormlite/routers/First.java
/Users/maxbrown/Documents/Spring2019/final/555-final-project/src/main/java/edu/upenn/cis455/mapreduce/RunJobRoute.java
/Users/maxbrown/Documents/Spring2019/final/555-final-project/src/main/java/edu/upenn/cis/stormlite/bolt/IRichBolt.java
/Users/maxbrown/Documents/Spring2019/final/555-final-project/src/main/java/edu/upenn/cis455/mapreduce/model/ReduceItemKey.java
/Users/maxbrown/Documents/Spring2019/final/555-final-project/src/main/java/edu/upenn/cis/stormlite/IStreamSource.java
/Users/maxbrown/Documents/Spring2019/final/555-final-project/src/main/java/edu/upenn/cis/stormlite/tuple/Values.java
/Users/maxbrown/Documents/Spring2019/final/555-final-project/src/main/java/edu/upenn/cis/IndexStorage/TfIdfDatabaseContainer.java
/Users/maxbrown/Documents/Spring2019/final/555-final-project/src/main/java/edu/upenn/cis/stormlite/bolt/ReduceBolt.java
/Users/maxbrown/Documents/Spring2019/final/555-final-project/src/main/java/edu/upenn/cis/stormlite/TopologyContext.java
/Users/maxbrown/Documents/Spring2019/final/555-final-project/src/main/java/edu/upenn/cis/IndexStorage/DocuParse.java
/Users/maxbrown/Documents/Spring2019/final/555-final-project/src/main/java/edu/upenn/cis/stormlite/tasks/ITask.java
/Users/maxbrown/Documents/Spring2019/final/555-final-project/src/main/java/edu/upenn/cis455/mapreduce/worker/WorkerServer.java
/Users/maxbrown/Documents/Spring2019/final/555-final-project/src/main/java/edu/upenn/cis/IndexStorage/SearchServer.java
/Users/maxbrown/Documents/Spring2019/final/555-final-project/src/main/java/edu/upenn/cis/stormlite/spout/CrawlerSpout.java
/Users/maxbrown/Documents/Spring2019/final/555-final-project/src/main/java/edu/upenn/cis/stormlite/routers/StreamRouter.java
/Users/maxbrown/Documents/Spring2019/final/555-final-project/src/main/java/edu/upenn/cis/stormlite/LocalCluster.java
/Users/maxbrown/Documents/Spring2019/final/555-final-project/src/main/java/edu/upenn/cis/stormlite/StatCollector.java
/Users/maxbrown/Documents/Spring2019/final/555-final-project/src/main/java/edu/upenn/cis/IndexStorage/TfIdfAccessor.java
/Users/maxbrown/Documents/Spring2019/final/555-final-project/src/main/java/edu/upenn/cis/stormlite/routers/Broadcast.java
/Users/maxbrown/Documents/Spring2019/final/555-final-project/src/main/java/edu/upenn/cis/stormlite/bolt/FilterURLsBolt.java
/Users/maxbrown/Documents/Spring2019/final/555-final-project/src/main/java/edu/upenn/cis/stormlite/DistributedCluster.java
/Users/maxbrown/Documents/Spring2019/final/555-final-project/src/main/java/edu/upenn/cis/stormlite/distributed/WorkerJob.java
/Users/maxbrown/Documents/Spring2019/final/555-final-project/src/main/java/edu/upenn/cis/stormlite/IOutputCollector.java
/Users/maxbrown/Documents/Spring2019/final/555-final-project/src/main/java/edu/upenn/cis/stormlite/tuple/Tuple.java
/Users/maxbrown/Documents/Spring2019/final/555-final-project/src/main/java/edu/upenn/cis455/mapreduce/utils/info/RobotsTxtParser.java
/Users/maxbrown/Documents/Spring2019/final/555-final-project/src/main/java/edu/upenn/cis455/mapreduce/model/DocumentAccessor.java
/Users/maxbrown/Documents/Spring2019/final/555-final-project/src/main/java/edu/upenn/cis/stormlite/tasks/BoltTask.java
/Users/maxbrown/Documents/Spring2019/final/555-final-project/src/main/java/edu/upenn/cis/stormlite/distributed/StringIntPairKeyDeserializer.java
/Users/maxbrown/Documents/Spring2019/final/555-final-project/src/main/java/edu/upenn/cis455/mapreduce/master/MasterServer.java
/Users/maxbrown/Documents/Spring2019/final/555-final-project/src/main/java/edu/upenn/cis455/mapreduce/Job.java
/Users/maxbrown/Documents/Spring2019/final/555-final-project/src/main/java/edu/upenn/cis455/mapreduce/Context.java
/Users/maxbrown/Documents/Spring2019/final/555-final-project/src/main/java/edu/upenn/cis455/mapreduce/job/WordCount.java
